<?xml version="1.0" encoding="utf-8"?>
<!-- Generator: Adobe Illustrator 21.0.1, SVG Export Plug-In . SVG Version: 6.00 Build 0)  -->
<svg version="1.1" id="Capa_1" xmlns="http://www.w3.org/2000/svg" xmlns:xlink="http://www.w3.org/1999/xlink" x="0px" y="0px"
	 viewBox="0 0 138.8 55.8" style="enable-background:new 0 0 138.8 55.8;" xml:space="preserve">
<style type="text/css">
	.st0{fill:#FFFFFF;}
	.st1{fill:none;stroke:#DF6656;stroke-miterlimit:10;}
	.st2{fill:#283E66;}
</style>
<rect class="st0" width="138.8" height="55.8"/>
<rect x="6" y="4.5" class="st1" width="126.8" height="46.8"/>
<g>
	<g>
		<path class="st2" d="M46.3,42.7v-5.3h2.1c1.1,0,1.7,0.7,1.7,1.6c0,0.9-0.6,1.6-1.7,1.6h-1.5v2.1H46.3z M49.4,38.9
			c0-0.6-0.4-1-1.1-1h-1.4v2h1.4C49,39.9,49.4,39.5,49.4,38.9z"/>
		<path class="st2" d="M52.2,42.7v-5.3h3.5v0.6h-2.8v1.7h2.8v0.6h-2.8v1.8h2.8v0.6H52.2z"/>
		<path class="st2" d="M61.7,42.7l-3.1-4.3v4.3h-0.7v-5.3h0.7l3.1,4.2v-4.2h0.7v5.3H61.7z M59.6,36.1c-0.2,0-0.4,0.2-0.4,0.7h-0.4
			c0-0.6,0.3-1.1,0.8-1.1c0.6,0,0.6,0.7,1,0.7c0.2,0,0.4-0.2,0.4-0.7h0.4c0,0.6-0.3,1.1-0.8,1.1C60,36.8,60,36.1,59.6,36.1z"/>
		<path class="st2" d="M68.6,42.7l-0.5-1.2h-2.7L65,42.7h-0.8l2.2-5.3h0.8l2.1,5.3H68.6z M66.8,38l-1.1,2.9h2.3L66.8,38z"/>
		<path class="st2" d="M70.8,41.9l0.4-0.5c0.3,0.4,0.9,0.8,1.7,0.8c1,0,1.3-0.5,1.3-0.9c0-1.4-3.2-0.6-3.2-2.5
			c0-0.9,0.8-1.5,1.8-1.5c0.8,0,1.4,0.3,1.9,0.8l-0.4,0.5c-0.4-0.4-1-0.6-1.5-0.6c-0.6,0-1.1,0.3-1.1,0.8c0,1.2,3.2,0.5,3.2,2.5
			c0,0.8-0.5,1.6-2,1.6C71.9,42.8,71.2,42.4,70.8,41.9z"/>
		<path class="st2" d="M76.8,40c0-1.6,1.2-2.8,2.7-2.8c0.9,0,1.6,0.4,2,1.1L81,38.6c-0.3-0.5-0.9-0.8-1.5-0.8
			c-1.2,0-2.1,0.9-2.1,2.2c0,1.3,0.9,2.2,2.1,2.2c0.6,0,1.2-0.3,1.5-0.8l0.6,0.3c-0.4,0.6-1.1,1.1-2,1.1C78,42.8,76.8,41.6,76.8,40z
			"/>
		<path class="st2" d="M87.4,42.7l-0.5-1.2h-2.7l-0.5,1.2H83l2.2-5.3H86l2.1,5.3H87.4z M85.6,38l-1.1,2.9h2.3L85.6,38z"/>
		<path class="st2" d="M90,42.7v-5.3h0.7v4.7h2.5v0.6H90z"/>
	</g>
</g>
<g>
	<path class="st2" d="M28.9,21.5v10.8h-2.6V15.7c0-0.4,0.5-0.5,0.7-0.3l9.9,10.8V15.5h2.7V32c0,0.4-0.5,0.5-0.7,0.3L28.9,21.5z"/>
	<path class="st2" d="M52.8,26.3l-2-5.1l-2,5.1H52.8z M53.7,28.7h-6l-1.4,3.6h-2.9l7-16.8c0.1-0.3,0.6-0.3,0.7,0l7,16.8h-2.9
		L53.7,28.7z"/>
	<path class="st2" d="M75.1,32.3v-9.9l-5,6.4c-0.1,0.2-0.3,0.2-0.5,0l-5.1-6.4v9.9h-2.6V15.6c0-0.3,0.3-0.4,0.5-0.2l7.4,9.4l7.4-9.4
		c0.1-0.2,0.5-0.1,0.5,0.2v16.7H75.1z"/>
	<path class="st2" d="M84.8,31c-0.7-0.5-1.2-1.1-1.5-1.8c-0.4-0.8-0.6-1.6-0.6-2.6V15.5h2.6v11.1c0,1,0.4,1.8,1,2.3
		c0.6,0.5,1.6,0.8,2.6,0.8c1,0,1.9-0.3,2.6-0.8c0.7-0.5,1-1.3,1-2.3V15.5h2.7v11.1c0,0.9-0.2,1.8-0.6,2.6c-0.4,0.7-0.9,1.3-1.5,1.8
		c-1.1,0.9-2.6,1.3-4.2,1.3C87.4,32.3,85.9,31.8,84.8,31"/>
	<path class="st2" d="M107.3,26.3l-2-5.1l-2,5.1H107.3z M108.3,28.7h-6l-1.4,3.6h-2.9l7-16.8c0.1-0.3,0.6-0.3,0.7,0l7,16.8h-2.9
		L108.3,28.7z"/>
</g>
</svg>
